{
  "project_info": {
    "project_number": "649634073860",
    "firebase_url": "https://tuservicio-fa44c.firebaseio.com",
    "project_id": "tuservicio-fa44c",
    "storage_bucket": "tuservicio-fa44c.appspot.com"
  },
  "client": [
    {
      "client_info": {
        "mobilesdk_app_id": "1:649634073860:android:3e4d915373955061",
        "android_client_info": {
          "package_name": "com.proyectofinal.tuservicio"
        }
      },
      "oauth_client": [
        {
          "client_id": "649634073860-cfmnbfdemru4agu928pp7ve27r3rstna.apps.googleusercontent.com",
          "client_type": 1,
          "android_info": {
            "package_name": "com.proyectofinal.tuservicio",
            "certificate_hash": "0ABEB4919063E1B20B6E68FC05CD5937429683E6"
          }
        },
        {
          "client_id": "649634073860-db8uq4mltf69k160j301b4ihutskhqgg.apps.googleusercontent.com",
          "client_type": 3
        }
      ],
      "api_key": [
        {
          "current_key": "AIzaSyC2heLb9SlrF5eAnIlZJ8cSDjY1C54aszk"
        }
      ],
      "services": {
        "analytics_service": {
          "status": 1
        },
        "appinvite_service": {
          "status": 1,
          "other_platform_oauth_client": []
        },
        "ads_service": {
          "status": 2
        }
      }
    }
  ],
  "configuration_version": "1"
}